tidy_tues_third
…
#view data set 
top_250

## # A tibble: 251 x 9
##    raw_rank player  years total_goals url_number raw_link link   active yr_start
##       <dbl> <chr>   <chr>       <dbl>      <dbl> <chr>    <chr>  <chr>     <dbl>
##  1        1 Wayne  1979         894          1 /player https Retir     1979
##  2        2 Gordie 1946         801          2 /player https Retir     1946
##  3        3 Jaromi 1990         766          3 /player https Retir     1990
##  4        4 Brett  1986         741          4 /player https Retir     1986
##  5        5 Marcel 1971         731          5 /player https Retir     1971
##  6        6 Phil E 1963         717          6 /player https Retir     1963
##  7        7 Mike G 1979         708          7 /player https Retir     1979
##  8        8 Alex O 2005         700          8 /player https Active     2005
##  9        9 Mark M 1979         694          9 /player https Retir     1979
## 10       10 Steve  1983         692         10 /player https Retir     1983
## #  with 241 more rows
…
